<?xml version="1.0" ?>
<robot name="turtlebot3_burger_vibot" xmlns:xacro="http://ros.org/wiki/xacro">
  <xacro:include filename="$(find turtlebot3_description)/urdf/common_properties.xacro"/>
  <xacro:include filename="$(find turtlebot3_description)/urdf/turtlebot3_burger_vibot.gazebo.xacro"/>

  <link name="base_footprint"/>

  <joint name="base_joint" type="fixed">
    <parent link="base_footprint"/>
    <child link="base_link"/>
    <origin xyz="0.0 0.0 0.010" rpy="0 0 0"/>
  </joint>

  <link name="base_link">
    <visual>
      <origin xyz="-0.032 0 0.0" rpy="0 0 0"/>
      <geometry>
        <mesh filename="package://turtlebot3_description/meshes/bases/burger_base.stl" scale="0.001 0.001 0.001"/>
      </geometry>
      <material name="light_black"/>
    </visual>

    <collision>
      <origin xyz="-0.032 0 0.070" rpy="0 0 0"/>
      <geometry>
        <box size="0.140 0.140 0.143"/>
      </geometry>
    </collision>

    <inertial>
      <origin xyz="-0.016 0 0" rpy="0 0 0"/>
      <mass value="8.2573504"/>
      <inertia ixx="2.2124416e-02" ixy="-1.2294101e-04" ixz="3.4938785e-04"
               iyy="2.1193702e-02" iyz="-5.0120904e-05"
               izz="2.0064271e-02" />
    </inertial>
  </link>

  <joint name="wheel_left_joint" type="continuous">
    <parent link="base_link"/>
    <child link="wheel_left_link"/>
    <origin xyz="0.0 0.08 0.023" rpy="-1.5707 0 0"/>
    <axis xyz="0 0 1"/>
  </joint>

  <link name="wheel_left_link">
    <visual>
      <origin xyz="0 0 0" rpy="1.5707 0 0"/>
      <geometry>
        <mesh filename="package://turtlebot3_description/meshes/wheels/left_tire.stl" scale="0.001 0.001 0.001"/>
      </geometry>
      <material name="dark"/>
    </visual>

    <collision>
      <origin xyz="0 0 0" rpy="0 0 0"/>
      <geometry>
        <cylinder length="0.018" radius="0.033"/>
      </geometry>
    </collision>

    <inertial>
      <origin xyz="0 0 0" />
      <mass value="2.8498940" />
      <inertia ixx="1.1175580e-03" ixy="-4.2369783e-08" ixz="-5.9381719e-07"
               iyy="1.1192413e-03" iyz="-1.4400107e-08"
               izz="2.0712558e-03" />
      </inertial>
  </link>

  <joint name="wheel_right_joint" type="continuous">
    <parent link="base_link"/>
    <child link="wheel_right_link"/>
    <origin xyz="0.0 -0.080 0.023" rpy="-1.5707 0 0"/>
    <axis xyz="0 0 1"/>
  </joint>

  <link name="wheel_right_link">
    <visual>
      <origin xyz="0 0 0" rpy="1.5707 0 0"/>
      <geometry>
        <mesh filename="package://turtlebot3_description/meshes/wheels/right_tire.stl" scale="0.001 0.001 0.001"/>
      </geometry>
      <material name="dark"/>
    </visual>

    <collision>
      <origin xyz="0 0 0" rpy="0 0 0"/>
      <geometry>
        <cylinder length="0.018" radius="0.033"/>
      </geometry>
    </collision>

    <inertial>
      <origin xyz="0 0 0" />
      <mass value="2.8498940" />
      <inertia ixx="1.1175580e-03" ixy="-4.2369783e-08" ixz="-5.9381719e-07"
               iyy="1.1192413e-03" iyz="-1.4400107e-08"
               izz="2.0712558e-03" />
      </inertial>
  </link>

  <!-- TODO: Change the back caster by a wheel with its real params -->
  <joint name="caster_back_joint" type="fixed">
    <parent link="base_link"/>
    <child link="caster_back_link"/>
    <origin xyz="-0.081 0 -0.004" rpy="-1.5707 0 0"/>
  </joint>

  <link name="caster_back_link">
    <collision>
      <origin xyz="0 0.000 0" rpy="0 0 0"/>
      <geometry>
        <box size="0.030 0.009 0.020"/>
      </geometry>
    </collision>
    <visual>
      <origin xyz="0 0.000 0" rpy="0 0 0"/>
      <geometry>
        <box size="0.030 0.009 0.020"/>
      </geometry>
    </visual>

    <inertial>
      <origin xyz="0 0 0" />
      <mass value="0.000001" />
      <inertia ixx="0.000001" ixy="0.0" ixz="0.0"
               iyy="0.000001" iyz="0.0"
               izz="0.000001" />
    </inertial>
  </link>

  <joint name="imu_joint" type="fixed">
    <parent link="base_link"/>
    <child link="imu_link"/>
    <origin xyz="-0.032 0 0.068" rpy="0 0 0"/>
  </joint>

  <link name="imu_link"/>

  <!-- TODO: Change the controller board's size, and its collision model -->
  <joint name="controller_board_joint" type="fixed">
    <origin xyz="-0.03 0.0 0.052" rpy="0 0 3.14156"/>
    <parent link="base_link"/>
    <child link="controller_board_link"/>
  </joint>

  <link name="controller_board_link">
    <visual>
      <origin xyz="0 0 0" rpy="0 0 0"/>
      <geometry>
        <mesh filename="package://turtlebot3_description/meshes/sensors/ControllerBoard.dae" scale="0.8 0.8 0.8"/>
      </geometry>
    </visual>

    <collision>
      <origin xyz="0 0 0" rpy="0 0 0"/>
      <geometry>
        <box size="0.015 0.030 0.027"/>
      </geometry>
    </collision>
  </link>

  <!-- TODO: Change the RaspberryPi's size, and its collision model -->
  <joint name="rpi_board_joint" type="fixed">
    <origin xyz="-0.02 0.045 0.098" rpy="0 0 -3.14156"/>
    <parent link="base_link"/>
    <child link="rpi_board_link"/>
  </joint>

  <link name="rpi_board_link">
    <visual>
      <origin xyz="0.03 0.04 0" rpy="1.57 0 1.57"/>
      <geometry>
        <mesh filename="package://turtlebot3_description/meshes/sensors/RPI4_model.dae"/>
      </geometry>
      <material name="dark"/>
    </visual>

    <collision>
      <origin xyz="0 0 0" rpy="0 0 0"/>
      <geometry>
        <box size="0.015 0.030 0.027"/>
      </geometry>
    </collision>
  </link>

  <!-- TODO: Change the Battery's size, and its collision model -->
  <joint name="battery_joint" type="fixed">
    <origin xyz="-0.03 0 0.022" rpy="0 0 0"/>
    <parent link="base_link"/>
    <child link="battery_link"/>
  </joint>

  <link name="battery_link">
    <visual>
      <origin xyz="0 0 0" rpy="0 0 0"/>
      <geometry>
        <mesh filename="package://turtlebot3_description/meshes/sensors/Battery.dae" scale="0.8 0.8 0.8"/>
      </geometry>
      <material name="dark"/>
    </visual>

    <collision>
      <origin xyz="0 0 0" rpy="0 0 0"/>
      <geometry>
        <box size="0.015 0.030 0.027"/>
      </geometry>
    </collision>
  </link>

  <joint name="scan_joint" type="continuous">
    <parent link="base_link"/>
    <child link="base_scan"/>
    <origin xyz="-0.032 0 0.172" rpy="0 0 0"/>
  </joint>

  <link name="base_scan">
    <visual>
      <origin xyz="0 0 0.0" rpy="0 0 0"/>
      <geometry>
        <mesh filename="package://turtlebot3_description/meshes/sensors/lds.stl" scale="0.001 0.001 0.001"/>
      </geometry>
      <material name="dark"/>
    </visual>

    <collision>
      <origin xyz="0.015 0 -0.0065" rpy="0 0 0"/>
      <geometry>
        <cylinder length="0.0315" radius="0.055"/>
      </geometry>
    </collision>

    <inertial>
      <mass value="0.114" />
      <origin xyz="0 0 0" />
      <inertia ixx="0.001" ixy="0.0" ixz="0.0"
               iyy="0.001" iyz="0.0"
               izz="0.001" />
    </inertial>
  </link>

  <!-- TODO: Change the camera's size, and its collision model -->
  <joint name="camera_dummy_joint" type="fixed">
    <origin xyz="0.040 -0.000 0.110" rpy="0 0 0"/>
    <parent link="base_link"/>
    <child link="camera_dummy_link"/>
  </joint>

  <link name="camera_dummy_link">
    <collision>
      <origin xyz="0.005 0.000 0.013" rpy="0 0 0"/>
      <geometry>
        <box size="0.015 0.030 0.027"/>
      </geometry>
    </collision>

    <visual>
      <origin xyz="0 0 0" rpy="0 0 -1.57"/>
       <geometry>
        <mesh filename="package://turtlebot3_description/meshes/sensors/camera.dae"/>
       </geometry>
     </visual>
  </link>

  <joint name="camera_joint" type="fixed">
    <origin xyz="0.003 0.000 10" rpy="0 0 0"/>
    <parent link="camera_dummy_link"/>
    <child link="camera_frame"/>
  </joint>
  <link name="camera_frame"/>

  <!-- TODO: The joint / link "camera_optical_frame" set the camera position (from where we see).
    Change this value by the corresponding TF information -->
  <joint name="camera_optical_joint" type="fixed">
    <origin xyz="0 0 0" rpy="-1.5707 0 -1.57"/>
    <parent link="camera_frame"/>
    <child link="camera_optical_frame"/>
  </joint>
  <link name="camera_optical_frame"/>
</robot>